Transport Planning Method Assignment 1
…
##     personID         distance_person 
##  Min.   :1.410e+09   Min.   :  0.00  
##  1st Qu.:1.410e+09   1st Qu.:  7.18  
##  Median :1.410e+09   Median : 16.71  
##  Mean   :1.410e+09   Mean   : 25.36  
##  3rd Qu.:1.410e+09   3rd Qu.: 33.83  
##  Max.   :1.411e+09   Max.   :970.80

distance_person

## # A tibble: 10,816 x 2
##      personID distance_person
##         <int>           <dbl>
##  1 1410150601            0   
##  2 1410305603            0   
##  3 1410369501            0   
##  4 1410429602            0   
##  5 1410432403            0   
##  6 1410455701            0   
##  7 1410455702            0   
##  8 1410463602            0   
##  9 1410142802            0.06
## 10 1410212702            0.08
## #  with 10,806 more rows
…
##       hhid          distance_household
##  Min.   :14100001   Min.   :   0.00   
##  1st Qu.:14101521   1st Qu.:  13.45   
##  Median :14103031   Median :  32.15   
##  Mean   :14103040   Mean   :  71.01   
##  3rd Qu.:14104558   3rd Qu.:  63.30   
##  Max.   :14106094   Max.   :7372.68

distance_household

## # A tibble: 5,813 x 2
##        hhid distance_household
##       <int>              <dbl>
##  1 14101506               0   
##  2 14104557               0   
##  3 14102566               0.08
##  4 14102546               0.14
##  5 14103808               0.14
##  6 14105397               0.16
##  7 14102081               0.17
##  8 14105714               0.18
##  9 14101030               0.2 
## 10 14102282               0.2 
## #  with 5,803 more rows
…
dim(hhsurvey_trips)

## [1] 47726     7

# Make dummy variables: Peak/Off-Peak periods for MTIME (mtime_day)
hhsurvey_trips <- hhsurvey_trips %>% 
  mutate(mtime = factor(mtime_day))
hhsurvey_trips

## # A tibble: 47,726 x 8
## # Groups:   hhid [5,805]
##      hhid mtime_day gtime trip_dur_report implied_speed_m travelers_total
##     <int>     <int> <int>            <int>            <int>           <int>
##  1 1.41e7         5     5               10               11               1
##  2 1.41e7         1    12               25               16               1
##  3 1.41e7         3    14               35               12               1
##  4 1.41e7         3     1                5                4               1
##  5 1.41e7         1     0                5                0               1
##  6 1.41e7         1     0                5                0               1
##  7 1.41e7         2     0                5                0               1
##  8 1.41e7         2     0                5                0               1
##  9 1.41e7         2    11               25               15               1
## 10 1.41e7         2    12               25               15               1
## #  with 47,716 more rows, and 2 more variables: gdist <dbl>, mtime <fct>
…
